<?php

namespace Bus;

/**
 * <Carts_Disable - API to disable or enable a Carts>
 *
 * @package Bus
 * @created 2014-11-20
 * @version 1.0
 * @author VuLTH
 * @copyright Oceanize INC
 */
class Carts_Disable extends BusAbstract
{
    /** @var array $_required Define check required */
    protected $_required = array(
        'id',
        'disable',
    );
    
    /** @var array $_length Define check length */
    protected $_length = array(
        'disable' => 1,
    );
    
    /** @var array $_number_format Define check number */
    protected $_number_format = array(
        'disable',
    );
    /**
     * Call function operateDB() 
     *
     * @author VuLTH
     * @param array $data Input data
     * @return bool Success or otherwise
     */
    public function operateDB($data)
    {
        try
        {
            $this->_response = \Model_Cart::disable($data);
            return $this->result(\Model_Cart::error());
        }
        catch (\Exception $e)
        {
            $this->_exception = $e;
        }
        return false;
    }

}

