<?php

namespace Bus;

/**
 * <Userlogs_Detail - API to get detail of Userlogs>
 *
 * @package Bus
 * @created 2014-11-21
 * @version 1.0
 * @author truongnn
 * @copyright Oceanize INC
 */
class Userlogs_Detail extends BusAbstract
{
    /** @var array $_required Define check required */
    protected $_required = array(
        'id', //stone_id
    );
    
    /** @var array $_length Define check length */
    protected $_length = array(
        'id' => array(0, 11),
    );
    
    /** @var array $_number_format Define check number */
    protected $_number_format = array(
        'id',
    );
    /**
     * Call function operateDB() from model Userlog
     *
     * @author truongnn
     * @param array $data Input data
     * @return bool Success or otherwise
     */
    public function operateDB($data)
    {
        try
        {
            $this->_response = \Model_User_Log::get_detail($data);
            return $this->result(\Model_User_Log::error());
        }
        catch (\Exception $e)
        {
            $this->_exception = $e;
        }
        return false;
    }

}

